Capstone Project
…
4.4 Analyzing Monthly rides with respect to each user

Annual_trip_3 <- Annual_trip_3%>%
  mutate(month=factor(month,levels=c("Jun","Jul","Aug","Sep","Oct","Nov","Dec","Jan","Feb","Mar","Apr","May")))

Annual_trip_3%>%
  group_by(user,month)%>%
  summarise(number_of_ride=n())%>%
  arrange(user)

## `summarise()` has grouped output by 'user'. You can override using the
## `.groups` argument.

## # A tibble: 24 x 3
## # Groups:   user [2]
##    user   month number_of_ride
##    <chr>  <fct>          <int>
##  1 casual Jun           364315
##  2 casual Jul           435611
##  3 casual Aug           406314
##  4 casual Sep           358711
##  5 casual Oct           253260
##  6 casual Nov           105161
##  7 casual Dec            68690
##  8 casual Jan            17960
##  9 casual Feb            20925
## 10 casual Mar            88068
## # ... with 14 more rows
…
